…
Note: this call can take some time to pull. It’s not necessary to go through for the lab, so it’s okay to skip if you are running into issues.

Access census estimates

WV_county_medinc <- get_acs(geography = "county", 
              variables = c(medincome = "B19013_001"), 
              state = "WV", 
              year = 2015)

## Getting data from the 2011-2015 5-year ACS

WV_county_medinc

## # A tibble: 55 x 5
##    GEOID NAME                            variable  estimate   moe
##    <chr> <chr>                           <chr>        <dbl> <dbl>
##  1 54001 Barbour County, West Virginia   medincome    37066  2601
##  2 54003 Berkeley County, West Virginia  medincome    55239  1628
##  3 54005 Boone County, West Virginia     medincome    39958  2871
##  4 54007 Braxton County, West Virginia   medincome    32750  4420
##  5 54009 Brooke County, West Virginia    medincome    46215  2259
##  6 54011 Cabell County, West Virginia    medincome    38344  1905
##  7 54013 Calhoun County, West Virginia   medincome    35568  6515
##  8 54015 Clay County, West Virginia      medincome    31325  3298
##  9 54017 Doddridge County, West Virginia medincome    39974  4623
## 10 54019 Fayette County, West Virginia   medincome    36293  1836
## # … with 45 more rows
…
